<testview>
    Main file
    <testview2>
        Inside testview2
        <testview3>
            Another level
        </testview3>
    </testview2>
    After 1st testview2 call in main file
    <testview2>
        Inside testview2
        <testview3>
            Another level
        </testview3>
    </testview2>
    After 2nd testview2 call in main file
    <testview3>
            Another level
        </testview3>
    After testview3 call in main file
</testview>